%YAML 1.1
%TAG !u! tag:unity3d.com,2011:
--- !u!114 &11400000
MonoBehaviour:
  m_ObjectHideFlags: 0
  m_CorrespondingSourceObject: {fileID: 0}
  m_PrefabInstance: {fileID: 0}
  m_PrefabAsset: {fileID: 0}
  m_GameObject: {fileID: 0}
  m_Enabled: 1
  m_EditorHideFlags: 0
  m_Script: {fileID: 11500000, guid: c6d63a5660fa02a4c858baceb7747981, type: 3}
  m_Name: hud
  m_EditorClassIdentifier: 
  material: {fileID: 2100000, guid: 6acf0759b00eda7439f9b19d473fa7cb, type: 2}
  mSprites:
  - name: algebra
    x: 580
    y: 293
    width: 64
    height: 50
    borderLeft: 0
    borderRight: 0
    borderTop: 0
    borderBottom: 0
    paddingLeft: 0
    paddingRight: 0
    paddingTop: 7
    paddingBottom: 7
  - name: applied_sciences
    x: 205
    y: 228
    width: 66
    height: 59
    borderLeft: 0
    borderRight: 0
    borderTop: 0
    borderBottom: 0
    paddingLeft: 4
    paddingRight: 4
    paddingTop: 4
    paddingBottom: 4
  - name: arithmetic
    x: 124
    y: 110
    width: 64
    height: 57
    borderLeft: 0
    borderRight: 0
    borderTop: 0
    borderBottom: 0
    paddingLeft: 0
    paddingRight: 0
    paddingTop: 3
    paddingBottom: 4
  - name: astronomy
    x: 422
    y: 177
    width: 50
    height: 52
    borderLeft: 0
    borderRight: 0
    borderTop: 0
    borderBottom: 0
    paddingLeft: 7
    paddingRight: 7
    paddingTop: 7
    paddingBottom: 5
  - name: biology
    x: 646
    y: 300
    width: 64
    height: 51
    borderLeft: 0
    borderRight: 0
    borderTop: 0
    borderBottom: 0
    paddingLeft: 0
    paddingRight: 0
    paddingTop: 6
    paddingBottom: 7
  - name: chemistry
    x: 307
    y: 351
    width: 62
    height: 66
    borderLeft: 0
    borderRight: 0
    borderTop: 0
    borderBottom: 0
    paddingLeft: 4
    paddingRight: 4
    paddingTop: 4
    paddingBottom: 4
  - name: drawing
    x: 0
    y: 36
    width: 64
    height: 53
    borderLeft: 0
    borderRight: 0
    borderTop: 0
    borderBottom: 0
    paddingLeft: 0
    paddingRight: 0
    paddingTop: 5
    paddingBottom: 6
  - name: dsu_bot_close
    x: 580
    y: 237
    width: 54
    height: 54
    borderLeft: 0
    borderRight: 0
    borderTop: 0
    borderBottom: 0
    paddingLeft: 0
    paddingRight: 0
    paddingTop: 0
    paddingBottom: 0
  - name: dsu_bot_dialog
    x: 694
    y: 136
    width: 11
    height: 162
    borderLeft: 0
    borderRight: 0
    borderTop: 0
    borderBottom: 0
    paddingLeft: 0
    paddingRight: 0
    paddingTop: 0
    paddingBottom: 0
  - name: dsu_but_continue
    x: 155
    y: 295
    width: 75
    height: 63
    borderLeft: 0
    borderRight: 0
    borderTop: 0
    borderBottom: 0
    paddingLeft: 0
    paddingRight: 0
    paddingTop: 0
    paddingBottom: 0
  - name: dsu_icon_alert
    x: 382
    y: 422
    width: 64
    height: 64
    borderLeft: 0
    borderRight: 0
    borderTop: 0
    borderBottom: 0
    paddingLeft: 0
    paddingRight: 0
    paddingTop: 0
    paddingBottom: 0
  - name: dsu_icon_arrow_back
    x: 250
    y: 60
    width: 38
    height: 60
    borderLeft: 0
    borderRight: 0
    borderTop: 0
    borderBottom: 0
    paddingLeft: 0
    paddingRight: 0
    paddingTop: 0
    paddingBottom: 0
  - name: dsu_icon_back
    x: 615
    y: 470
    width: 64
    height: 64
    borderLeft: 0
    borderRight: 0
    borderTop: 0
    borderBottom: 0
    paddingLeft: 0
    paddingRight: 0
    paddingTop: 0
    paddingBottom: 0
  - name: dsu_icon_chat
    x: 681
    y: 418
    width: 64
    height: 64
    borderLeft: 0
    borderRight: 0
    borderTop: 0
    borderBottom: 0
    paddingLeft: 0
    paddingRight: 0
    paddingTop: 0
    paddingBottom: 0
  - name: dsu_icon_check
    x: 483
    y: 479
    width: 64
    height: 64
    borderLeft: 0
    borderRight: 0
    borderTop: 0
    borderBottom: 0
    paddingLeft: 0
    paddingRight: 0
    paddingTop: 0
    paddingBottom: 0
  - name: dsu_icon_close
    x: 549
    y: 479
    width: 64
    height: 64
    borderLeft: 0
    borderRight: 0
    borderTop: 0
    borderBottom: 0
    paddingLeft: 0
    paddingRight: 0
    paddingTop: 0
    paddingBottom: 0
  - name: dsu_icon_dialog
    x: 80
    y: 496
    width: 78
    height: 78
    borderLeft: 0
    borderRight: 0
    borderTop: 0
    borderBottom: 0
    paddingLeft: 0
    paddingRight: 0
    paddingTop: 0
    paddingBottom: 0
  - name: dsu_icon_game
    x: 747
    y: 418
    width: 64
    height: 64
    borderLeft: 0
    borderRight: 0
    borderTop: 0
    borderBottom: 0
    paddingLeft: 0
    paddingRight: 0
    paddingTop: 0
    paddingBottom: 0
  - name: dsu_icon_home
    x: 448
    y: 413
    width: 64
    height: 64
    borderLeft: 0
    borderRight: 0
    borderTop: 0
    borderBottom: 0
    paddingLeft: 0
    paddingRight: 0
    paddingTop: 0
    paddingBottom: 0
  - name: dsu_icon_quest
    x: 158
    y: 360
    width: 74
    height: 64
    borderLeft: 0
    borderRight: 0
    borderTop: 0
    borderBottom: 0
    paddingLeft: 0
    paddingRight: 0
    paddingTop: 0
    paddingBottom: 0
  - name: dsu_icon_question
    x: 382
    y: 356
    width: 64
    height: 64
    borderLeft: 0
    borderRight: 0
    borderTop: 0
    borderBottom: 0
    paddingLeft: 0
    paddingRight: 0
    paddingTop: 0
    paddingBottom: 0
  - name: dsu_icon_reload
    x: 813
    y: 399
    width: 64
    height: 64
    borderLeft: 0
    borderRight: 0
    borderTop: 0
    borderBottom: 0
    paddingLeft: 0
    paddingRight: 0
    paddingTop: 0
    paddingBottom: 0
  - name: dsu_icon_store
    x: 945
    y: 371
    width: 64
    height: 64
    borderLeft: 0
    borderRight: 0
    borderTop: 0
    borderBottom: 0
    paddingLeft: 0
    paddingRight: 0
    paddingTop: 0
    paddingBottom: 0
  - name: dsu_pixel_dummy
    x: 307
    y: 424
    width: 1
    height: 1
    borderLeft: 0
    borderRight: 0
    borderTop: 0
    borderBottom: 0
    paddingLeft: 0
    paddingRight: 0
    paddingTop: 0
    paddingBottom: 0
  - name: dsu_ui_button_normal
    x: 411
    y: 488
    width: 70
    height: 70
    borderLeft: 0
    borderRight: 0
    borderTop: 0
    borderBottom: 0
    paddingLeft: 0
    paddingRight: 0
    paddingTop: 0
    paddingBottom: 0
  - name: dsu_ui_button_round
    x: 401
    y: 730
    width: 164
    height: 164
    borderLeft: 0
    borderRight: 0
    borderTop: 0
    borderBottom: 0
    paddingLeft: 0
    paddingRight: 0
    paddingTop: 0
    paddingBottom: 0
  - name: dsu_ui_button_round_spec
    x: 536
    y: 634
    width: 132
    height: 68
    borderLeft: 0
    borderRight: 0
    borderTop: 0
    borderBottom: 0
    paddingLeft: 0
    paddingRight: 0
    paddingTop: 0
    paddingBottom: 0
  - name: dsu_ui_circle
    x: 254
    y: 561
    width: 77
    height: 79
    borderLeft: 0
    borderRight: 0
    borderTop: 0
    borderBottom: 0
    paddingLeft: 0
    paddingRight: 0
    paddingTop: 0
    paddingBottom: 0
  - name: dsu_ui_frame
    x: 0
    y: 415
    width: 76
    height: 78
    borderLeft: 0
    borderRight: 0
    borderTop: 0
    borderBottom: 0
    paddingLeft: 0
    paddingRight: 0
    paddingTop: 0
    paddingBottom: 0
  - name: dsu_ui_frame_bevel_spec
    x: 0
    y: 8
    width: 58
    height: 26
    borderLeft: 0
    borderRight: 0
    borderTop: 0
    borderBottom: 0
    paddingLeft: 0
    paddingRight: 0
    paddingTop: 0
    paddingBottom: 0
  - name: economics
    x: 427
    y: 126
    width: 47
    height: 49
    borderLeft: 0
    borderRight: 0
    borderTop: 0
    borderBottom: 0
    paddingLeft: 7
    paddingRight: 10
    paddingTop: 8
    paddingBottom: 7
  - name: edit
    x: 536
    y: 545
    width: 87
    height: 87
    borderLeft: 0
    borderRight: 0
    borderTop: 0
    borderBottom: 0
    paddingLeft: 20
    paddingRight: 21
    paddingTop: 21
    paddingBottom: 20
  - name: empty_pixel
    x: 232
    y: 357
    width: 1
    height: 1
    borderLeft: 0
    borderRight: 0
    borderTop: 0
    borderBottom: 0
    paddingLeft: 0
    paddingRight: 0
    paddingTop: 0
    paddingBottom: 0
  - name: english
    x: 514
    y: 351
    width: 64
    height: 62
    borderLeft: 0
    borderRight: 0
    borderTop: 0
    borderBottom: 0
    paddingLeft: 0
    paddingRight: 0
    paddingTop: 1
    paddingBottom: 1
  - name: ethics
    x: 646
    y: 353
    width: 60
    height: 63
    borderLeft: 0
    borderRight: 0
    borderTop: 0
    borderBottom: 0
    paddingLeft: 1
    paddingRight: 3
    paddingTop: 1
    paddingBottom: 0
  - name: exact_sciences
    x: 158
    y: 426
    width: 75
    height: 66
    borderLeft: 0
    borderRight: 0
    borderTop: 0
    borderBottom: 0
    paddingLeft: 7
    paddingRight: 0
    paddingTop: 0
    paddingBottom: 6
  - name: flag_en
    x: 625
    y: 536
    width: 100
    height: 67
    borderLeft: 0
    borderRight: 0
    borderTop: 0
    borderBottom: 0
    paddingLeft: 7
    paddingRight: 7
    paddingTop: 7
    paddingBottom: 6
  - name: flag_ru
    x: 727
    y: 484
    width: 100
    height: 67
    borderLeft: 0
    borderRight: 0
    borderTop: 0
    borderBottom: 0
    paddingLeft: 7
    paddingRight: 7
    paddingTop: 7
    paddingBottom: 6
  - name: flag_ua
    x: 829
    y: 465
    width: 100
    height: 67
    borderLeft: 0
    borderRight: 0
    borderTop: 0
    borderBottom: 0
    paddingLeft: 7
    paddingRight: 7
    paddingTop: 7
    paddingBottom: 6
  - name: forward
    x: 333
    y: 564
    width: 76
    height: 76
    borderLeft: 0
    borderRight: 0
    borderTop: 0
    borderBottom: 0
    paddingLeft: 27
    paddingRight: 25
    paddingTop: 21
    paddingBottom: 31
  - name: france
    x: 139
    y: 231
    width: 64
    height: 62
    borderLeft: 0
    borderRight: 0
    borderTop: 0
    borderBottom: 0
    paddingLeft: 0
    paddingRight: 0
    paddingTop: 1
    paddingBottom: 1
  - name: games
    x: 708
    y: 360
    width: 60
    height: 56
    borderLeft: 0
    borderRight: 0
    borderTop: 0
    borderBottom: 0
    paddingLeft: 2
    paddingRight: 2
    paddingTop: 4
    paddingBottom: 4
  - name: general
    x: 528
    y: 113
    width: 35
    height: 64
    borderLeft: 0
    borderRight: 0
    borderTop: 0
    borderBottom: 0
    paddingLeft: 14
    paddingRight: 15
    paddingTop: 0
    paddingBottom: 0
  - name: geography
    x: 62
    y: 153
    width: 60
    height: 64
    borderLeft: 0
    borderRight: 0
    borderTop: 0
    borderBottom: 0
    paddingLeft: 2
    paddingRight: 2
    paddingTop: 0
    paddingBottom: 0
  - name: geometry
    x: 297
    y: 288
    width: 64
    height: 61
    borderLeft: 0
    borderRight: 0
    borderTop: 0
    borderBottom: 0
    paddingLeft: 0
    paddingRight: 0
    paddingTop: 1
    paddingBottom: 2
  - name: german
    x: 448
    y: 349
    width: 64
    height: 62
    borderLeft: 0
    borderRight: 0
    borderTop: 0
    borderBottom: 0
    paddingLeft: 0
    paddingRight: 0
    paddingTop: 1
    paddingBottom: 1
  - name: health_and_safety
    x: 124
    y: 44
    width: 53
    height: 64
    borderLeft: 0
    borderRight: 0
    borderTop: 0
    borderBottom: 0
    paddingLeft: 5
    paddingRight: 6
    paddingTop: 0
    paddingBottom: 0
  - name: history
    x: 646
    y: 234
    width: 46
    height: 64
    borderLeft: 0
    borderRight: 0
    borderTop: 0
    borderBottom: 0
    paddingLeft: 9
    paddingRight: 9
    paddingTop: 0
    paddingBottom: 0
  - name: humanities
    x: 70
    y: 283
    width: 67
    height: 66
    borderLeft: 0
    borderRight: 0
    borderTop: 0
    borderBottom: 0
    paddingLeft: 31
    paddingRight: 30
    paddingTop: 33
    paddingBottom: 29
  - name: icon_art
    x: 62
    y: 92
    width: 60
    height: 59
    borderLeft: 0
    borderRight: 0
    borderTop: 0
    borderBottom: 0
    paddingLeft: 3
    paddingRight: 1
    paddingTop: 3
    paddingBottom: 2
  - name: icon_awards
    x: 411
    y: 560
    width: 76
    height: 71
    borderLeft: 0
    borderRight: 0
    borderTop: 0
    borderBottom: 0
    paddingLeft: 0
    paddingRight: 0
    paddingTop: 0
    paddingBottom: 0
  - name: icon_chemistry
    x: 557
    y: 179
    width: 52
    height: 56
    borderLeft: 0
    borderRight: 0
    borderTop: 0
    borderBottom: 0
    paddingLeft: 6
    paddingRight: 6
    paddingTop: 3
    paddingBottom: 5
  - name: icon_coin
    x: 86
    y: 576
    width: 84
    height: 79
    borderLeft: 0
    borderRight: 0
    borderTop: 0
    borderBottom: 0
    paddingLeft: 0
    paddingRight: 0
    paddingTop: 0
    paddingBottom: 0
  - name: icon_games_top
    x: 765
    y: 302
    width: 68
    height: 43
    borderLeft: 0
    borderRight: 0
    borderTop: 0
    borderBottom: 0
    paddingLeft: 9
    paddingRight: 8
    paddingTop: 10
    paddingBottom: 14
  - name: icon_geography
    x: 712
    y: 299
    width: 51
    height: 59
    borderLeft: 0
    borderRight: 0
    borderTop: 0
    borderBottom: 0
    paddingLeft: 6
    paddingRight: 7
    paddingTop: 2
    paddingBottom: 3
  - name: icon_gold_star
    x: 670
    y: 605
    width: 90
    height: 85
    borderLeft: 0
    borderRight: 0
    borderTop: 0
    borderBottom: 0
    paddingLeft: 20
    paddingRight: 18
    paddingTop: 22
    paddingBottom: 21
  - name: icon_gold_star_2
    x: 567
    y: 805
    width: 98
    height: 89
    borderLeft: 0
    borderRight: 0
    borderTop: 0
    borderBottom: 0
    paddingLeft: 16
    paddingRight: 14
    paddingTop: 20
    paddingBottom: 19
  - name: icon_heart
    x: 0
    y: 576
    width: 84
    height: 79
    borderLeft: 0
    borderRight: 0
    borderTop: 0
    borderBottom: 0
    paddingLeft: 0
    paddingRight: 0
    paddingTop: 0
    paddingBottom: 0
  - name: icon_hide_quest
    x: 476
    y: 176
    width: 50
    height: 56
    borderLeft: 0
    borderRight: 0
    borderTop: 0
    borderBottom: 0
    paddingLeft: 0
    paddingRight: 0
    paddingTop: 0
    paddingBottom: 0
  - name: icon_info
    x: 611
    y: 154
    width: 30
    height: 81
    borderLeft: 0
    borderRight: 0
    borderTop: 0
    borderBottom: 0
    paddingLeft: 49
    paddingRight: 49
    paddingTop: 24
    paddingBottom: 23
  - name: icon_literature
    x: 254
    y: 164
    width: 60
    height: 58
    borderLeft: 0
    borderRight: 0
    borderTop: 0
    borderBottom: 0
    paddingLeft: 1
    paddingRight: 3
    paddingTop: 2
    paddingBottom: 4
  - name: icon_lock
    x: 810
    y: 642
    width: 83
    height: 122
    borderLeft: 0
    borderRight: 0
    borderTop: 0
    borderBottom: 0
    paddingLeft: 23
    paddingRight: 22
    paddingTop: 3
    paddingBottom: 3
  - name: icon_main_button
    x: 567
    y: 704
    width: 138
    height: 96
    borderLeft: 0
    borderRight: 0
    borderTop: 0
    borderBottom: 0
    paddingLeft: 0
    paddingRight: 0
    paddingTop: 0
    paddingBottom: 0
  - name: icon_math
    x: 371
    y: 291
    width: 62
    height: 63
    borderLeft: 0
    borderRight: 0
    borderTop: 0
    borderBottom: 0
    paddingLeft: 0
    paddingRight: 2
    paddingTop: 0
    paddingBottom: 1
  - name: icon_medal
    x: 0
    y: 269
    width: 58
    height: 76
    borderLeft: 0
    borderRight: 0
    borderTop: 0
    borderBottom: 0
    paddingLeft: 35
    paddingRight: 35
    paddingTop: 26
    paddingBottom: 26
  - name: icon_other
    x: 273
    y: 224
    width: 60
    height: 62
    borderLeft: 0
    borderRight: 0
    borderTop: 0
    borderBottom: 0
    paddingLeft: 2
    paddingRight: 2
    paddingTop: 0
    paddingBottom: 2
  - name: icon_physics
    x: 514
    y: 290
    width: 64
    height: 59
    borderLeft: 0
    borderRight: 0
    borderTop: 0
    borderBottom: 0
    paddingLeft: 0
    paddingRight: 0
    paddingTop: 2
    paddingBottom: 3
  - name: icon_plus
    x: 422
    y: 231
    width: 52
    height: 55
    borderLeft: 0
    borderRight: 0
    borderTop: 0
    borderBottom: 0
    paddingLeft: 0
    paddingRight: 0
    paddingTop: 0
    paddingBottom: 0
  - name: icon_round_but_question
    x: 332
    y: 737
    width: 61
    height: 84
    borderLeft: 0
    borderRight: 0
    borderTop: 0
    borderBottom: 0
    paddingLeft: 0
    paddingRight: 0
    paddingTop: 0
    paddingBottom: 0
  - name: icon_round_but_skip
    x: 78
    y: 351
    width: 75
    height: 63
    borderLeft: 0
    borderRight: 0
    borderTop: 0
    borderBottom: 0
    paddingLeft: 0
    paddingRight: 0
    paddingTop: 0
    paddingBottom: 0
  - name: icon_safety
    x: 435
    y: 288
    width: 64
    height: 59
    borderLeft: 0
    borderRight: 0
    borderTop: 0
    borderBottom: 0
    paddingLeft: 0
    paddingRight: 0
    paddingTop: 0
    paddingBottom: 5
  - name: icon_settings
    x: 333
    y: 491
    width: 76
    height: 71
    borderLeft: 0
    borderRight: 0
    borderTop: 0
    borderBottom: 0
    paddingLeft: 0
    paddingRight: 0
    paddingTop: 0
    paddingBottom: 0
  - name: icon_star
    x: 931
    y: 437
    width: 84
    height: 79
    borderLeft: 0
    borderRight: 0
    borderTop: 0
    borderBottom: 0
    paddingLeft: 0
    paddingRight: 0
    paddingTop: 0
    paddingBottom: 0
  - name: icon_store
    x: 770
    y: 347
    width: 66
    height: 50
    borderLeft: 0
    borderRight: 0
    borderTop: 0
    borderBottom: 0
    paddingLeft: 0
    paddingRight: 0
    paddingTop: 0
    paddingBottom: 0
  - name: icon_table
    x: 807
    y: 953
    width: 76
    height: 71
    borderLeft: 0
    borderRight: 0
    borderTop: 0
    borderBottom: 0
    paddingLeft: 0
    paddingRight: 0
    paddingTop: 0
    paddingBottom: 0
  - name: icon_unlock
    x: 888
    y: 766
    width: 128
    height: 122
    borderLeft: 0
    borderRight: 0
    borderTop: 0
    borderBottom: 0
    paddingLeft: 0
    paddingRight: 0
    paddingTop: 0
    paddingBottom: 6
  - name: informatics
    x: 838
    y: 317
    width: 58
    height: 52
    borderLeft: 0
    borderRight: 0
    borderTop: 0
    borderBottom: 0
    paddingLeft: 4
    paddingRight: 2
    paddingTop: 7
    paddingBottom: 5
  - name: inventory_icon
    x: 316
    y: 120
    width: 46
    height: 50
    borderLeft: 0
    borderRight: 0
    borderTop: 0
    borderBottom: 0
    paddingLeft: 9
    paddingRight: 9
    paddingTop: 9
    paddingBottom: 5
  - name: keyboard
    x: 250
    y: 122
    width: 61
    height: 40
    borderLeft: 0
    borderRight: 0
    borderTop: 0
    borderBottom: 0
    paddingLeft: 1
    paddingRight: 2
    paddingTop: 13
    paddingBottom: 11
  - name: labor
    x: 375
    y: 123
    width: 50
    height: 52
    borderLeft: 0
    borderRight: 0
    borderTop: 0
    borderBottom: 0
    paddingLeft: 7
    paddingRight: 7
    paddingTop: 4
    paddingBottom: 8
  - name: languages
    x: 0
    y: 347
    width: 68
    height: 66
    borderLeft: 0
    borderRight: 0
    borderTop: 0
    borderBottom: 0
    paddingLeft: 30
    paddingRight: 30
    paddingTop: 31
    paddingBottom: 31
  - name: law
    x: 580
    y: 345
    width: 64
    height: 59
    borderLeft: 0
    borderRight: 0
    borderTop: 0
    borderBottom: 0
    paddingLeft: 0
    paddingRight: 0
    paddingTop: 2
    paddingBottom: 3
  - name: learn
    x: 332
    y: 642
    width: 105
    height: 86
    borderLeft: 0
    borderRight: 0
    borderTop: 0
    borderBottom: 0
    paddingLeft: 12
    paddingRight: 11
    paddingTop: 17
    paddingBottom: 25
  - name: list
    x: 762
    y: 553
    width: 86
    height: 87
    borderLeft: 0
    borderRight: 0
    borderTop: 0
    borderBottom: 0
    paddingLeft: 22
    paddingRight: 20
    paddingTop: 18
    paddingBottom: 23
  - name: literature
    x: 60
    y: 219
    width: 64
    height: 62
    borderLeft: 0
    borderRight: 0
    borderTop: 0
    borderBottom: 0
    paddingLeft: 0
    paddingRight: 0
    paddingTop: 1
    paddingBottom: 1
  - name: miscellaneous
    x: 239
    y: 427
    width: 69
    height: 72
    borderLeft: 0
    borderRight: 0
    borderTop: 0
    borderBottom: 0
    paddingLeft: 32
    paddingRight: 27
    paddingTop: 29
    paddingBottom: 27
  - name: more
    x: 850
    y: 543
    width: 26
    height: 97
    borderLeft: 0
    borderRight: 0
    borderTop: 0
    borderBottom: 0
    paddingLeft: 51
    paddingRight: 51
    paddingTop: 12
    paddingBottom: 19
  - name: music
    x: 489
    y: 567
    width: 41
    height: 64
    borderLeft: 0
    borderRight: 0
    borderTop: 0
    borderBottom: 0
    paddingLeft: 11
    paddingRight: 12
    paddingTop: 0
    paddingBottom: 0
  - name: natural_sciences
    x: 179
    y: 37
    width: 35
    height: 64
    borderLeft: 0
    borderRight: 0
    borderTop: 0
    borderBottom: 0
    paddingLeft: 14
    paddingRight: 15
    paddingTop: 0
    paddingBottom: 0
  - name: nature_study
    x: 316
    y: 172
    width: 57
    height: 49
    borderLeft: 0
    borderRight: 0
    borderTop: 0
    borderBottom: 0
    paddingLeft: 4
    paddingRight: 3
    paddingTop: 8
    paddingBottom: 7
  - name: pass_icon
    x: 895
    y: 534
    width: 74
    height: 128
    borderLeft: 0
    borderRight: 0
    borderTop: 0
    borderBottom: 0
    paddingLeft: 0
    paddingRight: 0
    paddingTop: 0
    paddingBottom: 0
  - name: philosophy
    x: 126
    y: 169
    width: 64
    height: 60
    borderLeft: 0
    borderRight: 0
    borderTop: 0
    borderBottom: 0
    paddingLeft: 0
    paddingRight: 0
    paddingTop: 4
    paddingBottom: 0
  - name: physics
    x: 0
    y: 153
    width: 60
    height: 64
    borderLeft: 0
    borderRight: 0
    borderTop: 0
    borderBottom: 0
    paddingLeft: 2
    paddingRight: 2
    paddingTop: 0
    paddingBottom: 0
  - name: ring
    x: 0
    y: 91
    width: 60
    height: 60
    borderLeft: 29
    borderRight: 29
    borderTop: 29
    borderBottom: 29
    paddingLeft: 2
    paddingRight: 2
    paddingTop: 2
    paddingBottom: 2
  - name: russian
    x: 580
    y: 406
    width: 64
    height: 62
    borderLeft: 0
    borderRight: 0
    borderTop: 0
    borderBottom: 0
    paddingLeft: 0
    paddingRight: 0
    paddingTop: 1
    paddingBottom: 1
  - name: sidebar
    x: 239
    y: 501
    width: 86
    height: 58
    borderLeft: 0
    borderRight: 0
    borderTop: 0
    borderBottom: 0
    paddingLeft: 23
    paddingRight: 19
    paddingTop: 35
    paddingBottom: 35
  - name: social_icon
    x: 66
    y: 28
    width: 54
    height: 62
    borderLeft: 0
    borderRight: 0
    borderTop: 0
    borderBottom: 0
    paddingLeft: 5
    paddingRight: 5
    paddingTop: 1
    paddingBottom: 1
  - name: social_sciences
    x: 363
    y: 223
    width: 57
    height: 66
    borderLeft: 0
    borderRight: 0
    borderTop: 0
    borderBottom: 0
    paddingLeft: 37
    paddingRight: 34
    paddingTop: 32
    paddingBottom: 30
  - name: square
    x: 879
    y: 371
    width: 64
    height: 64
    borderLeft: 30
    borderRight: 30
    borderTop: 30
    borderBottom: 30
    paddingLeft: 0
    paddingRight: 0
    paddingTop: 0
    paddingBottom: 0
  - name: square_shadow
    x: 192
    y: 165
    width: 60
    height: 61
    borderLeft: 28
    borderRight: 28
    borderTop: 28
    borderBottom: 28
    paddingLeft: 0
    paddingRight: 4
    paddingTop: 0
    paddingBottom: 3
  - name: stone_128
    x: 707
    y: 692
    width: 101
    height: 108
    borderLeft: 0
    borderRight: 0
    borderTop: 0
    borderBottom: 0
    paddingLeft: 8
    paddingRight: 19
    paddingTop: 11
    paddingBottom: 9
  - name: textures_icon_premium
    x: 895
    y: 664
    width: 100
    height: 100
    borderLeft: 0
    borderRight: 0
    borderTop: 0
    borderBottom: 0
    paddingLeft: 14
    paddingRight: 14
    paddingTop: 17
    paddingBottom: 11
  - name: top_close
    x: 501
    y: 234
    width: 54
    height: 54
    borderLeft: 0
    borderRight: 0
    borderTop: 0
    borderBottom: 0
    paddingLeft: 0
    paddingRight: 0
    paddingTop: 0
    paddingBottom: 0
  - name: top_dialog_bg
    x: 1011
    y: 273
    width: 11
    height: 162
    borderLeft: 0
    borderRight: 0
    borderTop: 0
    borderBottom: 0
    paddingLeft: 0
    paddingRight: 0
    paddingTop: 0
    paddingBottom: 0
  - name: ui_button_normal
    x: 235
    y: 355
    width: 70
    height: 70
    borderLeft: 33
    borderRight: 33
    borderTop: 35
    borderBottom: 39
    paddingLeft: 0
    paddingRight: 0
    paddingTop: 0
    paddingBottom: 0
  - name: ui_button_round
    x: 0
    y: 657
    width: 164
    height: 164
    borderLeft: 0
    borderRight: 0
    borderTop: 0
    borderBottom: 0
    paddingLeft: 0
    paddingRight: 0
    paddingTop: 0
    paddingBottom: 0
  - name: ui_button_round_def
    x: 166
    y: 657
    width: 164
    height: 164
    borderLeft: 0
    borderRight: 0
    borderTop: 0
    borderBottom: 0
    paddingLeft: 0
    paddingRight: 0
    paddingTop: 0
    paddingBottom: 0
  - name: ui_button_round_shadow
    x: 888
    y: 890
    width: 134
    height: 134
    borderLeft: 0
    borderRight: 0
    borderTop: 0
    borderBottom: 0
    paddingLeft: 0
    paddingRight: 0
    paddingTop: 0
    paddingBottom: 0
  - name: ui_button_round_spec
    x: 673
    y: 956
    width: 132
    height: 68
    borderLeft: 59
    borderRight: 59
    borderTop: 0
    borderBottom: 8
    paddingLeft: 0
    paddingRight: 0
    paddingTop: 0
    paddingBottom: 0
  - name: ui_button_spec
    x: 232
    y: 289
    width: 63
    height: 64
    borderLeft: 31
    borderRight: 27
    borderTop: 26
    borderBottom: 24
    paddingLeft: 0
    paddingRight: 0
    paddingTop: 0
    paddingBottom: 0
  - name: ui_circle
    x: 160
    y: 494
    width: 77
    height: 79
    borderLeft: 37
    borderRight: 37
    borderTop: 37
    borderBottom: 37
    paddingLeft: 0
    paddingRight: 0
    paddingTop: 0
    paddingBottom: 0
  - name: ui_circle_bevel
    x: 439
    y: 633
    width: 95
    height: 95
    borderLeft: 47
    borderRight: 47
    borderTop: 47
    borderBottom: 47
    paddingLeft: 0
    paddingRight: 0
    paddingTop: 0
    paddingBottom: 0
  - name: ui_dot
    x: 239
    y: 563
    width: 10
    height: 10
    borderLeft: 5
    borderRight: 5
    borderTop: 5
    borderBottom: 5
    paddingLeft: 0
    paddingRight: 0
    paddingTop: 0
    paddingBottom: 0
  - name: ui_frame
    x: 80
    y: 416
    width: 76
    height: 78
    borderLeft: 33
    borderRight: 33
    borderTop: 32
    borderBottom: 42
    paddingLeft: 0
    paddingRight: 0
    paddingTop: 0
    paddingBottom: 0
  - name: ui_frame_bevel
    x: 172
    y: 575
    width: 80
    height: 80
    borderLeft: 36
    borderRight: 36
    borderTop: 32
    borderBottom: 42
    paddingLeft: 0
    paddingRight: 0
    paddingTop: 0
    paddingBottom: 0
  - name: ui_frame_bevel_spec
    x: 810
    y: 774
    width: 58
    height: 26
    borderLeft: 25
    borderRight: 25
    borderTop: 0
    borderBottom: 0
    paddingLeft: 0
    paddingRight: 0
    paddingTop: 0
    paddingBottom: 0
  - name: ui_frame_no_shadow
    x: 310
    y: 419
    width: 70
    height: 70
    borderLeft: 25
    borderRight: 25
    borderTop: 29
    borderBottom: 28
    paddingLeft: 0
    paddingRight: 0
    paddingTop: 0
    paddingBottom: 0
  - name: ui_frame_shadow
    x: 838
    y: 371
    width: 23
    height: 26
    borderLeft: 10
    borderRight: 9
    borderTop: 12
    borderBottom: 8
    paddingLeft: 0
    paddingRight: 0
    paddingTop: 0
    paddingBottom: 0
  - name: ui_square_frame_no_shadow
    x: 179
    y: 104
    width: 4
    height: 4
    borderLeft: 1
    borderRight: 1
    borderTop: 1
    borderBottom: 1
    paddingLeft: 1
    paddingRight: 1
    paddingTop: 1
    paddingBottom: 1
  - name: ui_stroke_bevel
    x: 0
    y: 495
    width: 78
    height: 79
    borderLeft: 36
    borderRight: 36
    borderTop: 35
    borderBottom: 40
    paddingLeft: 0
    paddingRight: 0
    paddingTop: 0
    paddingBottom: 0
  - name: ui_table_bg
    x: 667
    y: 802
    width: 219
    height: 147
    borderLeft: 1
    borderRight: 1
    borderTop: 1
    borderBottom: 1
    paddingLeft: 0
    paddingRight: 0
    paddingTop: 0
    paddingBottom: 0
  - name: ui_table_header
    x: 971
    y: 518
    width: 48
    height: 144
    borderLeft: 16
    borderRight: 14
    borderTop: 12
    borderBottom: 20
    paddingLeft: 0
    paddingRight: 0
    paddingTop: 0
    paddingBottom: 0
  - name: ui_window_decoration
    x: 0
    y: 896
    width: 665
    height: 53
    borderLeft: 0
    borderRight: 0
    borderTop: 0
    borderBottom: 0
    paddingLeft: 0
    paddingRight: 0
    paddingTop: 0
    paddingBottom: 0
  - name: ui_window_decoration_bg
    x: 0
    y: 951
    width: 671
    height: 73
    borderLeft: 0
    borderRight: 0
    borderTop: 0
    borderBottom: 0
    paddingLeft: 0
    paddingRight: 0
    paddingTop: 0
    paddingBottom: 0
  - name: ukrainian
    x: 514
    y: 415
    width: 64
    height: 62
    borderLeft: 0
    borderRight: 0
    borderTop: 0
    borderBottom: 0
    paddingLeft: 0
    paddingRight: 0
    paddingTop: 1
    paddingBottom: 1
  - name: universinet
    x: 0
    y: 823
    width: 399
    height: 71
    borderLeft: 0
    borderRight: 0
    borderTop: 0
    borderBottom: 0
    paddingLeft: 0
    paddingRight: 0
    paddingTop: 0
    paddingBottom: 0
  - name: window_pointer
    x: 190
    y: 103
    width: 58
    height: 60
    borderLeft: 0
    borderRight: 0
    borderTop: 0
    borderBottom: 0
    paddingLeft: 3
    paddingRight: 3
    paddingTop: 2
    paddingBottom: 2
  mPixelSize: 1
  mReplacement: {fileID: 0}
